{
    "$schema": "http://json-schema.org/draft-07/schema",
    "$id": "https://raw.githubusercontent.com/nf-core/publishdir/master/nextflow_schema.json",
    "title": "nf-core/publishdir pipeline parameters",
    "description": "copy and paste files in the users folders",
    "type": "object",
    "definitions": {
        "input_output_options": {
            "title": "Input/output options",
            "type": "object",
            "fa_icon": "fas fa-terminal",
            "description": "Define where the pipeline should find input data and save output data.",
            "properties": {
                "email": {
                    "type": "string",
                    "description": "Email address for completion summary.",
                    "fa_icon": "fas fa-envelope",
                    "help_text": "Set this parameter to your e-mail address to get a summary e-mail with details of the run sent to you when the workflow exits. If set in your user config file (`~/.nextflow/config`) then you don't need to specify this on the command line for every run.",
                    "pattern": "^([a-zA-Z0-9_\\-\\.]+)@([a-zA-Z0-9_\\-\\.]+)\\.([a-zA-Z]{2,5})$"
                }
            }
        },
        "parameters_settings": {
            "title": "Parameters settings",
            "type": "object",
            "description": "",
            "default": "",
            "properties": {
                "runID": {
                    "type": "string",
                    "help_text": "run id parameter\n"
                },
                "tmpDir": {
                    "type": "string"
                },
                "publishDir": {
                    "type": "string"
                },
                "limsURL": {
                    "type": "string",
                    "default" :"https://samples.bioinfo-local.ieo.it"
                }
            },
            "required": [
                "runID",
                "tmpDir",
                "publishDir",
                "limsURL"
            ]
        }
    },
    "allOf": [
        {
            "$ref": "#/definitions/input_output_options"
        },
        {
            "$ref": "#/definitions/parameters_settings"
        }
    ],
    "properties": {
        "email_on_fail": {
            "type": "string",
            "description": "Email address for completion summary, only when pipeline fails.",
            "fa_icon": "fas fa-exclamation-triangle",
            "pattern": "^([a-zA-Z0-9_\\-\\.]+)@([a-zA-Z0-9_\\-\\.]+)\\.([a-zA-Z]{2,5})$",
            "help_text": "An email address to send a summary email to when the pipeline is completed - ONLY sent if the pipeline does not exit successfully.",
            "hidden": true
        }
    }
}
